File,Version,Issue ID,Issue Type,Origin(s),TA Result(s),DA Result(s),Origin Class,TA Most Frequent,TA Most Recent,Tags
/org.eclipse.debug.ui/ui/org/eclipse/debug/internal/ui/views/launch/LaunchView.java,1.104,61928,Bug,1.72,1.98|1.2,1.98,Single,?,?,unrelated-changes
/org.eclipse.jdt.ui/core refactoring/org/eclipse/jdt/internal/corext/refactoring/structure/PullUpRefactoring.java,1.106,63908,Bug,?,1.18|1.102|1.70|1.97|1.80|1.84,1.70,Related,?,?,
/org.eclipse.swt/Eclipse SWT/win32/org/eclipse/swt/widgets/Shell.java,1.107,56667,Bug,1.106,?,1.106,Single,?,?,only-da|guard-clause
/org.eclipse.swt/Eclipse SWT/win32/org/eclipse/swt/widgets/Text.java,1.107,81695,Bug,1.1,?,1.1,Single,?,?,only-da|only-added
/org.eclipse.jdt.core/compiler/org/eclipse/jdt/internal/compiler/parser/Scanner.java,1.108,51363,Bug,1.107,1.107,1.107,Single,?,?,
/org.eclipse.core.runtime/src/org/eclipse/core/internal/content/ContentDescription.java,1.10,72796,Bug,?,?,?,Unrelated,?,?,
/org.eclipse.jdt.core/dom/org/eclipse/jdt/core/dom/DocCommentParser.java,1.10,51626,Bug,?,1.1,1.1,Unrelated,?,?,multiple-bugs
/org.eclipse.jdt.core/eval/org/eclipse/jdt/internal/eval/CodeSnippetTypeDeclaration.java,1.10,61706,Bug,?,1.1,?,Unrelated,?,?,
/org.eclipse.jdt.ui/ui refactoring/org/eclipse/jdt/internal/ui/refactoring/ChangeTypeWizard.java,1.10,65254,Bug,1.1,1.4|1.1,1.4,Single,1.1,1.4,
/org.eclipse.ui.ide/src/org/eclipse/ui/views/navigator/WorkspaceActionGroup.java,1.10,77486,Bug,1.1,1.5|1.1,1.1,Single,1.1,1.5,only-da
/org.eclipse.ui.workbench/Eclipse UI/org/eclipse/ui/dialogs/AbstractElementListSelectionDialog.java,1.10,60789,Bug,1.1,?,?,Multiple,?,?,
/org.eclipse.jdt.core/search/org/eclipse/jdt/internal/core/search/indexing/IndexManager.java,1.110,52619,Bug,1.109,1.109,?,Single,?,?,
/org.eclipse.ui.workbench/Eclipse UI/org/eclipse/ui/internal/progress/ProgressManager.java,1.115,71600,Bug,1.65,?,1.84,Single,?,?,guard-clause|only-added
/org.eclipse.jdt.core/dom/org/eclipse/jdt/core/dom/AST.java,1.119,62769,Bug,1.93,?,?,Single,?,?,
/org.eclipse.jdt.ui/core refactoring/org/eclipse/jdt/internal/corext/refactoring/structure/MoveInnerToTopRefactoring.java,1.119,63519,Bug,1.44,1.111,1.44,Single,?,?,only-da
/org.eclipse.ant.ui/Ant Tools Support/org/eclipse/ant/internal/ui/preferences/AntEditorPreferenceConstants.java,1.11,62237,Bug,1.1,1.6,1.6,Single,?,?,unrelated-changes|feature
/org.eclipse.core.runtime/src/org/eclipse/core/internal/content/ContentTypeBuilder.java,1.11,72796,Bug,?,?,?,Unclear,?,?,
/org.eclipse.jdt.core/model/org/eclipse/jdt/core/eval/ICodeSnippetRequestor.java,1.11,62769,Bug,1.9,?,?,Single,?,?,
/org.eclipse.jdt.ui/ui/org/eclipse/jdt/internal/ui/preferences/formatter/WhiteSpaceOptions.java,1.11,74614,Bug,1.7,1.7,?,Single,?,?,
/org.eclipse.osgi/core/framework/org/eclipse/osgi/framework/internal/core/BundleNativeCode.java,1.11,52444,Bug,?,1.1,?,Unrelated,?,?,
/org.eclipse.ui.workbench/Eclipse UI/org/eclipse/ui/dialogs/CheckedTreeSelectionDialog.java,1.11,60789,Bug,1.1,?,?,Multiple,?,?,
/org.eclipse.ui.workbench/Eclipse UI/org/eclipse/ui/dialogs/ElementTreeSelectionDialog.java,1.11,60789,Bug,1.1,?,?,Multiple,?,?,
/org.eclipse.ui.workbench/Eclipse UI/org/eclipse/ui/internal/PerspectiveBarManager.java,1.11,65354,Bug,1.6,1.4|1.6,1.6,Single,1.6,1.6,only-da
/org.eclipse.ui.workbench/Eclipse UI/org/eclipse/ui/internal/progress/ProgressManagerUtil.java,1.11,59782,Bug,?,?,?,Related,?,?,
/org.eclipse.ui.workbench/Eclipse UI/org/eclipse/ui/part/PageBookView.java,1.11,55816,Bug,1.1,1.1,1.1,Single,?,?,
/org.eclipse.jdt.core/model/org/eclipse/jdt/internal/core/SetClasspathOperation.java,1.123,54851,Bug,1.15,1.15,1.15,Single,?,?,
/org.eclipse.swt/Eclipse SWT/gtk/org/eclipse/swt/widgets/Text.java,1.123,81695,Bug,1.1,?,1.1,Single,?,?,only-da|only-added
/org.eclipse.jdt.core/model/org/eclipse/jdt/core/jdom/IDOMImport.java,1.12,62769,Bug,1.9,?,?,Multiple,?,?,
/org.eclipse.jdt.core/model/org/eclipse/jdt/core/util/ICodeAttribute.java,1.12,62769,Bug,1.1,?,?,Single,?,?,
/org.eclipse.jdt.ui/ui/org/eclipse/jdt/internal/ui/javaeditor/selectionactions/StructureSelectionAction.java,1.12,66681,Bug,1.1,1.2,1.2,Single,?,?,
/org.eclipse.ui.workbench/Eclipse UI/org/eclipse/ui/dialogs/TypeFilteringDialog.java,1.12,60789,Bug,1.1,?,?,Multiple,?,?,
/org.eclipse.ui.workbench/Eclipse UI/org/eclipse/ui/internal/ILayoutContainer.java,1.12,53320,Bug,?,?,?,Unclear,?,?,multiple-bugs
/org.eclipse.ui.workbench/Eclipse UI/org/eclipse/ui/internal/PerspectiveHelper.java,1.12,53320,Bug,?,?,?,Unclear,?,?,multiple-bugs
/org.eclipse.ui.workbench/Eclipse UI/org/eclipse/ui/internal/progress/ProgressMonitorFocusJobDialog.java,1.12,59782,Bug,?,1.1,?,Unrelated,?,?,
/org.eclipse.jdt.core/dom/org/eclipse/jdt/core/dom/ASTConverter.java,1.138,51626,Bug,?,?,1.135,Unrelated,?,?,multiple-bugs
/org.eclipse.jdt.core/dom/org/eclipse/jdt/core/dom/TagElement.java,1.13,62769,Bug,1.1,?,?,Single,?,?,
/org.eclipse.jdt.ui/ui/org/eclipse/jdt/internal/ui/javaeditor/selectionactions/StructureSelectionAction.java,1.13,66681,Bug,1.7|1.2,1.7,1.7,Multiple,?,?,
/org.eclipse.jdt.core/compiler/org/eclipse/jdt/internal/compiler/problem/ProblemReporter.java,1.141,61706,Bug,?,1.1,1.1,Related,?,?,
/org.eclipse.swt/Eclipse SWT PI/win32/org/eclipse/swt/internal/win32/OS.java,1.143,57225,Bug,1.1,?,?,Single,?,?,
/org.eclipse.jdt.debug.ui/ui/org/eclipse/jdt/internal/debug/ui/JDIModelPresentation.java,1.145,61898,Bug,1.36,1.51,1.36,Single,?,?,only-da
/org.eclipse.update.core/src/org/eclipse/update/internal/core/InstallConfiguration.java,1.149,67912,Bug,1.63,?,1.40,Single,?,?,
/org.eclipse.jdt.core/dom/org/eclipse/jdt/core/dom/AnnotationTypeMemberDeclaration.java,1.14,62769,Bug,1.2,?,?,Single,?,?,
/org.eclipse.jdt.core/dom/org/eclipse/jdt/core/dom/IBinding.java,1.14,62769,Bug,1.13,?,?,Single,?,?,
/org.eclipse.jdt.core/eval/org/eclipse/jdt/internal/eval/CodeSnippetCodeStream.java,1.14,61706,Bug,?,?,?,Related,?,?,
/org.eclipse.jdt.core/search/org/eclipse/jdt/core/search/SearchParticipant.java,1.14,62769,Bug,1.8,?,?,Single,?,?,
/org.eclipse.swt/Eclipse SWT Browser/carbon/org/eclipse/swt/browser/WebKit.java,1.14,75390,Bug,?,?,?,Related,?,?,
/org.eclipse.team.cvs.ui/src/org/eclipse/team/internal/ccvs/ui/RemoteRevisionQuickDiffProvider.java,1.14,64967,Bug,1.2,1.4|1.2,1.4,Multiple,1.2,1.4,
/org.eclipse.ui.workbench/Eclipse UI/org/eclipse/ui/internal/LayoutTree.java,1.14,53320,Bug,?,?,?,Unclear,?,?,multiple-bugs
/org.eclipse.ui.workbench/Eclipse UI/org/eclipse/ui/internal/PageLayout.java,1.14,49970,Bug,1.1,?,1.1,Single,?,?,only-da|only-added
/org.eclipse.ui.workbench/Eclipse UI/org/eclipse/ui/internal/PerspectiveSwitcher.java,1.14,60768,Bug,1.1,?,1.7,Single,?,?,
/org.eclipse.ui.workbench/Eclipse UI/org/eclipse/ui/internal/dialogs/EventLoopProgressMonitor.java,1.14,59782,Bug,1.10,1.10,1.10,Single,?,?,
/org.eclipse.ui.workbench/Eclipse UI/org/eclipse/ui/internal/progress/BlockedJobsDialog.java,1.14,59782,Bug,?,1.1,?,Unrelated,?,?,
/org.eclipse.jdt.core/model/org/eclipse/jdt/internal/core/CompilationUnit.java,1.156,49561,Bug,1.1|1.98,1.1|1.98,1.140,Multiple,?,?,unrelated-changes
/org.eclipse.core.runtime/src/org/eclipse/core/internal/runtime/InternalPlatform.java,1.157,57670,Bug,1.34,1.34,1.34,Single,?,?,
/org.eclipse.compare/compare/org/eclipse/compare/internal/BinaryCompareViewer.java,1.15,62545,Bug,1.1,1.1,1.1,Single,?,?,
/org.eclipse.core.runtime/src/org/eclipse/core/internal/preferences/InstancePreferences.java,1.15,57670,Bug,1.1,1.1,1.1,Single,?,?,
/org.eclipse.jdt.core/compiler/org/eclipse/jdt/internal/compiler/problem/ProblemHandler.java,1.15,61706,Bug,?,1.7|1.1|1.10,1.10,Related,?,?,unrelated-changes
/org.eclipse.jdt.core/dom/org/eclipse/jdt/core/dom/ASTParser.java,1.15,62769,Bug,1.2,?,?,Single,?,?,
/org.eclipse.jdt.ui/core refactoring/org/eclipse/jdt/internal/corext/refactoring/rename/RenameNonVirtualMethodProcessor.java,1.15,63908,Bug,?,1.4|1.12|1.1,1.12,Related,?,?,
/org.eclipse.jdt.ui/core refactoring/org/eclipse/jdt/internal/corext/refactoring/structure/ConstructorReferenceFinder.java,1.15,63908,Bug,?,1.14|1.8|1.9,1.14,Related,?,?,
/org.eclipse.jdt.ui/ui/org/eclipse/jdt/ui/actions/ExtractConstantAction.java,1.15,72912,Bug,1.11,1.11,?,Single,?,?,
/org.eclipse.swt/Eclipse SWT Browser/carbon/org/eclipse/swt/browser/WebKit.java,1.15,75390,Bug,?,1.14,?,Related,?,?,
/org.eclipse.team.core/src/org/eclipse/team/internal/core/TeamPlugin.java,1.15,64435,Bug,?,1.13,1.13,Elsewhere,?,?,feature
/org.eclipse.ui.workbench/Eclipse UI/org/eclipse/ui/internal/themes/ColorsAndFontsPreferencePage.java,1.15,55243,Bug,1.1,1.1|1.3,1.3,Single,1.1,1.3,unrelated-changes
/org.eclipse.ui.workbench/Eclipse UI/org/eclipse/ui/part/PageBookView.java,1.15,55816,Bug,1.1,1.14|1.11,1.14,Single,?,?,
/org.eclipse.ui.workbench/Eclipse UI/org/eclipse/ui/internal/WorkbenchPage.java,1.161,53320,Bug,?,?,?,Unclear,?,?,multiple-bugs
/org.eclipse.osgi/defaultAdaptor/src/org/eclipse/osgi/framework/internal/defaultadaptor/DefaultClassLoader.java,1.16,56279,Bug,1.1,1.10,1.10,Single,?,?,
/org.eclipse.ui.workbench/Eclipse UI/org/eclipse/ui/internal/PerspectiveBarManager.java,1.16,60768,Bug,1.4,1.9,?,Single,?,?,
/org.eclipse.jdt.core/codeassist/org/eclipse/jdt/internal/codeassist/CompletionEngine.java,1.170,61706,Bug,?,?,?,Related,?,?,
/org.eclipse.debug.ui/ui/org/eclipse/debug/internal/ui/DebugUIPlugin.java,1.176,53554,Bug,1.172|1.173,1.172|1.173,?,Multiple,?,?,
/org.eclipse.jdt.core/compiler/org/eclipse/jdt/internal/compiler/lookup/TypeIds.java,1.17,54763,Bug,?,?,?,Related,?,?,
/org.eclipse.jdt.ui/core refactoring/org/eclipse/jdt/internal/corext/refactoring/code/TargetProvider.java,1.17,63908,Bug,?,1.16,?,Related,?,?,
/org.eclipse.jdt.ui/ui/org/eclipse/jdt/internal/ui/javaeditor/SemanticHighlightings.java,1.17,71784,Bug,1.13,1.13,?,Single,?,?,
/org.eclipse.jdt.ui/ui/org/eclipse/jdt/internal/ui/preferences/formatter/WhiteSpaceTabPage.java,1.17,74614,Bug,?,?,?,Unrelated,?,?,
/org.eclipse.jface/src/org/eclipse/jface/window/ApplicationWindow.java,1.17,61063,Bug,1.1,1.1,1.1,Single,?,?,
/org.eclipse.core.runtime/src/org/eclipse/core/internal/content/XMLContentDescriber.java,1.18,72796,Bug,?,?,?,Unrelated,?,?,
/org.eclipse.jdt.core/model/org/eclipse/jdt/core/IClasspathContainer.java,1.18,62769,Bug,1.17,?,?,Single,?,?,
/org.eclipse.ui.workbench/Eclipse UI/org/eclipse/ui/internal/PerspectiveSwitcher.java,1.18,60768,Bug,1.1,1.4|1.15|1.14|1.7|1.13,1.15,Single,?,?,
/org.eclipse.compare/compare/org/eclipse/compare/internal/patch/PatchWizard.java,1.19,51593,Bug,1.2,1.2,?,Single,?,?,
/org.eclipse.team.cvs.ui/src/org/eclipse/team/internal/ccvs/ui/wizards/ModuleSelectionPage.java,1.19,70445,Bug,?,1.8|1.13,1.13,Unrelated,?,?,guard-clause
/org.eclipse.ant.ui/Ant Editor/org/eclipse/ant/internal/ui/editor/text/AbstractAntEditorScanner.java,1.1,62237,Bug,?,?,?,Related,?,?,feature
/org.eclipse.ant.ui/Ant Tools Support/org/eclipse/ant/internal/ui/preferences/AntPreviewerUpdater.java,1.1,62237,Bug,?,?,?,Related,?,?,feature
/org.eclipse.jdt.ui/ui/org/eclipse/jdt/ui/actions/ExtractTempAction.java,1.20,72912,Bug,1.17,1.17,?,Single,?,?,
/org.eclipse.core.runtime/src/org/eclipse/core/internal/preferences/PreferencesService.java,1.21,54282,Bug,1.1,1.17|1.1|1.10,1.1,Single,1.1,1.17,only-da|unrelated-changes
/org.eclipse.jdt.core/search/org/eclipse/jdt/internal/core/search/matching/TypeReferenceLocator.java,1.21,72772,Bug,1.1,?,1.7,Single,?,?,
/org.eclipse.ui.workbench.texteditor/src/org/eclipse/ui/texteditor/AbstractDocumentProvider.java,1.21,50699,Bug,1.1,1.1,?,Single,?,?,
/org.eclipse.ui.workbench/Eclipse UI/org/eclipse/ui/internal/LayoutTreeNode.java,1.21,53320,Bug,?,?,?,Unclear,?,?,multiple-bugs
/org.eclipse.debug.ui/ui/org/eclipse/debug/internal/ui/views/console/ProcessConsole.java,1.22,74229,Bug,1.11,?,1.11,Single,?,?,only-da|only-added|guard-clause
/org.eclipse.jdt.core/compiler/org/eclipse/jdt/internal/compiler/ast/SuperReference.java,1.22,54763,Bug,?,1.19,1.19,Unrelated,?,?,
/org.eclipse.jdt.core/search/org/eclipse/jdt/core/search/IJavaSearchScope.java,1.22,62769,Bug,1.21,?,?,Multiple,?,?,
/org.eclipse.jdt.ui/core refactoring/org/eclipse/jdt/internal/corext/refactoring/RefactoringSearchEngine.java,1.22,63908,Bug,1.1,1.21|1.19,1.19,Single,?,?,
/org.eclipse.jdt.ui/ui/org/eclipse/jdt/ui/wizards/NewPackageWizardPage.java,1.22,60246,Bug,1.1,?,1.1,Single,?,?,only-da
/org.eclipse.osgi/core/framework/org/eclipse/osgi/framework/internal/core/Framework.java,1.22,52444,Bug,1.1,?,1.1,Single,?,?,only-da|only-added
/org.eclipse.ui.workbench/Eclipse UI/org/eclipse/ui/internal/progress/AnimationItem.java,1.22,50316,Bug,1.21,?,1.21,Single,?,?,only-da
/org.eclipse.ui.workbench/Eclipse UI/org/eclipse/ui/internal/WorkbenchWindow.java,1.239,60768,Bug,1.1,?,1.237,Single,?,?,
/org.eclipse.debug.core/core/org/eclipse/debug/core/model/Breakpoint.java,1.23,65351,Bug,1.20,1.20,?,Single,?,?,
/org.eclipse.jdt.core/search/org/eclipse/jdt/internal/core/search/matching/FieldLocator.java,1.23,72772,Bug,1.1,?,1.1,Single,?,?,only-da|only-added
/org.eclipse.jdt.ui/ui/org/eclipse/jdt/ui/actions/ExtractMethodAction.java,1.23,72912,Bug,1.20,1.20,?,Single,?,?,
/org.eclipse.osgi/eclipseAdaptor/src/org/eclipse/core/runtime/adaptor/BasicLocation.java,1.23,62185,Bug,1.12,1.12,1.12,Single,?,?,
/org.eclipse.debug.ui/ui/org/eclipse/debug/internal/ui/views/breakpoints/BreakpointsView.java,1.24,64940,Bug,1.7,?,1.7,Single,?,?,only-da|only-added
/org.eclipse.debug.ui/ui/org/eclipse/debug/internal/ui/views/console/ProcessConsole.java,1.24,74308,Bug,1.11,1.22,1.22,Single,?,?,
/org.eclipse.jdt.core/compiler/org/eclipse/jdt/internal/compiler/ast/QualifiedSuperReference.java,1.24,54763,Bug,?,1.13,1.19,Unrelated,?,?,
/org.eclipse.jdt.core/compiler/org/eclipse/jdt/internal/compiler/lookup/ArrayBinding.java,1.24,54763,Bug,?,1.1,1.1,Unrelated,?,?,
/org.eclipse.jdt.ui/core refactoring/org/eclipse/jdt/internal/corext/refactoring/structure/ExtractInterfaceUtil.java,1.24,63908,Bug,?,1.4|1.22,1.22,Related,?,?,
/org.eclipse.swt/Eclipse SWT PI/win32/org/eclipse/swt/internal/ole/win32/COM.java,1.24,57225,Bug,1.1,?,?,Single,?,?,
/org.eclipse.team.cvs.ui/src/org/eclipse/team/internal/ccvs/ui/repo/RepositoriesView.java,1.24,70445,Bug,?,1.4|1.2,?,Unrelated,?,?,
/org.eclipse.ui.workbench.texteditor/src/org/eclipse/ui/texteditor/SourceViewerDecorationSupport.java,1.24,62612,Bug,1.1,1.4,1.4,Single,?,?,
/org.eclipse.ui.workbench/Eclipse UI/org/eclipse/ui/internal/progress/ProgressMonitorFocusJobDialog.java,1.24,67612,Bug,?,1.5|1.21|1.10|1.22,1.22,Elsewhere,?,?,
/org.eclipse.core.resources/src/org/eclipse/core/resources/IFolder.java,1.25,50965,Bug,?,?,?,Related,?,?,
/org.eclipse.jdt.core/model/org/eclipse/jdt/internal/core/CreateElementInCUOperation.java,1.25,49561,Bug,1.1,?,?,Single,?,?,feature
/org.eclipse.jdt.core/search/org/eclipse/jdt/internal/core/search/matching/MethodLocator.java,1.25,72772,Bug,1.1,?,1.1,Single,?,?,only-da|only-added
/org.eclipse.jdt.ui/core refactoring/org/eclipse/jdt/internal/corext/refactoring/reorg/CreateCopyOfCompilationUnitChange.java,1.25,63908,Bug,?,1.22,?,Related,?,?,
/org.eclipse.jdt.ui/core refactoring/org/eclipse/jdt/internal/corext/refactoring/structure/ChangeTypeRefactoring.java,1.25,63908,Bug,?,1.21|1.3,?,Related,?,?,
/org.eclipse.team.cvs.ui/src/org/eclipse/team/internal/ccvs/ui/repo/RepositoryRoot.java,1.25,70445,Bug,?,1.17|1.8|1.18|1.2,1.18,Unrelated,?,?,
/org.eclipse.ui.workbench/Eclipse UI/org/eclipse/ui/internal/Workbench.java,1.268,76671,Bug,1.1,?,1.140,Single,?,?,feature
/org.eclipse.jdt.core/model/org/eclipse/jdt/core/util/CompilationUnitSorter.java,1.27,49561,Bug,?,1.22,1.22,Unrelated,?,?,
/org.eclipse.jdt.ui/core refactoring/org/eclipse/jdt/internal/corext/refactoring/code/IntroduceParameterRefactoring.java,1.27,63908,Bug,?,1.17|1.1,1.17,Related,?,?,
/org.eclipse.jdt.ui/ui/org/eclipse/jdt/internal/ui/preferences/JavadocConfigurationBlock.java,1.27,70111,Bug,1.16,1.16,?,Single,?,?,
/org.eclipse.jdt.ui/ui/org/eclipse/jdt/internal/ui/javaeditor/JavaEditor.java,1.287,62612,Bug,1.245,1.245,?,Single,?,?,
/org.eclipse.jdt.core/model/org/eclipse/jdt/internal/core/JavaProject.java,1.288,49561,Bug,?,1.1,1.1,Unrelated,?,?,
/org.eclipse.debug.core/core/org/eclipse/debug/internal/core/OutputStreamMonitor.java,1.28,74229,Bug,1.5,?,?,Single,?,?,guard-clause
/org.eclipse.jdt.core/model/org/eclipse/jdt/internal/core/CreateCompilationUnitOperation.java,1.28,49561,Bug,1.1,?,?,Single,?,?,feature
/org.eclipse.jdt.ui/ui/org/eclipse/jdt/internal/ui/wizards/NewSourceFolderWizardPage.java,1.28,60246,Bug,1.1,?,1.1,Single,?,?,only-da|only-added
/org.eclipse.debug.core/core/org/eclipse/debug/internal/core/OutputStreamMonitor.java,1.29,74229,Bug,1.5|1.17,1.5|1.28|1.17,1.28,Multiple,1.28,1.28,
/org.eclipse.jdt.core/model/org/eclipse/jdt/internal/core/util/Util.java,1.29,62713,Bug,1.11,1.11,1.11,Single,?,?,
/org.eclipse.ui.ide/src/org/eclipse/ui/ide/IDEActionFactory.java,1.29,77486,Bug,?,?,?,Related,?,?,
/org.eclipse.ant.ui/Ant Editor/org/eclipse/ant/internal/ui/editor/model/AntImportNode.java,1.2,52040,Bug,1.1,1.1,1.1,Single,?,?,
/org.eclipse.jdt.core/dom/org/eclipse/jdt/core/dom/ChildListPropertyDescriptor.java,1.2,62769,Bug,1.1,?,?,Single,?,?,
/org.eclipse.jdt.core/dom/org/eclipse/jdt/core/dom/ChildPropertyDescriptor.java,1.2,62769,Bug,1.1,?,?,Single,?,?,
/org.eclipse.jdt.core/dom/org/eclipse/jdt/core/dom/SimplePropertyDescriptor.java,1.2,62769,Bug,1.1,?,?,Single,?,?,
/org.eclipse.jdt.core/dom/org/eclipse/jdt/core/dom/StructuralPropertyDescriptor.java,1.2,62769,Bug,1.1,?,?,Multiple,?,?,
/org.eclipse.jdt.ui/ui/org/eclipse/jdt/internal/ui/text/java/hover/AbstractAnnotationHover.java,1.2,62612,Bug,1.1,1.1,?,Single,?,?,
/org.eclipse.ui.ide/extensions/org/eclipse/ui/actions/BuildAction.java,1.2,53582,Bug,1.1,1.1,1.1,Single,?,?,
/org.eclipse.ui.workbench/Eclipse UI/org/eclipse/ui/internal/progress/ProgressAnimationProcessor.java,1.2,54086,Bug,?,?,?,Unclear,?,?,feature
/org.eclipse.jdt.core/compiler/org/eclipse/jdt/internal/compiler/ast/InstanceOfExpression.java,1.30,54763,Bug,1.1,1.26,1.26,Single,?,?,unrelated-changes
/org.eclipse.swt/Eclipse SWT Program/win32/org/eclipse/swt/program/Program.java,1.30,71228,Bug,1.22,1.22,1.22,Single,?,?,
/org.eclipse.jdt.ui/core refactoring/org/eclipse/jdt/internal/corext/refactoring/rename/RenamePackageProcessor.java,1.31,63908,Bug,?,1.28|1.13,1.28,Related,?,?,
/org.eclipse.ui.workbench/Eclipse UI/org/eclipse/ui/internal/decorators/DecoratorManager.java,1.31,66318,Bug,1.22,1.22,1.22,Single,?,?,
/org.eclipse.ant.ui/Ant Editor/org/eclipse/ant/internal/ui/editor/outline/AntModel.java,1.32,52040,Bug,1.3,1.30|1.18|1.3,1.30,Single,1.30,1.30,multiple-bugs
/org.eclipse.debug.ui/ui/org/eclipse/debug/internal/ui/views/launch/LaunchViewContextListener.java,1.32,61928,Bug,1.11,?,?,Single,?,?,
/org.eclipse.jdt.core/compiler/org/eclipse/jdt/internal/compiler/ast/EqualExpression.java,1.32,54763,Bug,1.1,1.21|1.1,1.1,Single,1.21,1.21,only-da|unrelated-changes
/org.eclipse.jdt.core/compiler/org/eclipse/jdt/internal/compiler/codegen/Label.java,1.32,61706,Bug,?,1.16|1.17|1.22,?,Unrelated,?,?,
/org.eclipse.jdt.ui/core refactoring/org/eclipse/jdt/internal/corext/refactoring/rename/RenameFieldProcessor.java,1.32,63908,Bug,?,1.30|1.31|1.1|1.18,1.31,Related,?,?,
/org.eclipse.team.cvs.ui/src/org/eclipse/team/internal/ccvs/ui/operations/CheckoutProjectOperation.java,1.32,72508,Bug,1.7,1.7,1.7,Single,?,?,
/org.eclipse.ui.workbench/Eclipse UI/org/eclipse/ui/internal/presentations/DefaultPartPresentation.java,1.32,70362,Bug,1.14,?,1.14,Single,?,?,only-da|only-added
/org.eclipse.jdt.ui/core refactoring/org/eclipse/jdt/internal/corext/refactoring/code/IntroduceFactoryRefactoring.java,1.33,63908,Bug,?,1.27|1.1,1.27,Related,?,?,
/org.eclipse.ui.workbench/Eclipse UI/org/eclipse/ui/internal/ViewFactory.java,1.33,70362,Bug,1.26,1.26,1.26,Single,?,?,
/org.eclipse.jdt.core/compiler/org/eclipse/jdt/internal/compiler/lookup/ReferenceBinding.java,1.34,54763,Bug,?,?,1.33,Related,?,?,
/org.eclipse.jdt.core/compiler/org/eclipse/jdt/internal/compiler/problem/DefaultProblem.java,1.34,61706,Bug,?,?,?,Related,?,?,
/org.eclipse.ui.workbench/Eclipse UI/org/eclipse/ui/internal/PartSashContainer.java,1.34,53320,Bug,?,?,?,Unclear,?,?,multiple-bugs
/org.eclipse.jdt.core/dom/org/eclipse/jdt/core/dom/ClassInstanceCreation.java,1.35,62769,Bug,1.16,?,?,Single,?,?,
/org.eclipse.ui.workbench/Eclipse UI/org/eclipse/ui/internal/progress/AnimationManager.java,1.35,54086,Bug,?,?,?,Unclear,?,?,feature
/org.eclipse.jdt.ui/core refactoring/org/eclipse/jdt/internal/corext/refactoring/rename/RenameMethodProcessor.java,1.36,63908,Bug,?,1.30|1.32|1.7|1.34|1.1,1.34,Related,?,?,
/org.eclipse.jdt.ui/core refactoring/org/eclipse/jdt/internal/corext/refactoring/rename/RenameTypeProcessor.java,1.36,63908,Bug,?,1.33|1.1,1.33,Related,?,?,
/org.eclipse.jdt.core/compiler/org/eclipse/jdt/internal/compiler/ast/CompilationUnitDeclaration.java,1.37,61706,Bug,?,1.28|1.1,1.28,Related,?,?,
/org.eclipse.jdt.launching/launching/org/eclipse/jdt/internal/launching/RuntimeClasspathEntry.java,1.37,49891,Bug,1.1,1.8,1.8,Single,?,?,
/org.eclipse.jdt.ui/core refactoring/org/eclipse/jdt/internal/corext/refactoring/code/InlineConstantRefactoring.java,1.38,63908,Bug,?,1.1|1.37,1.37,Related,?,?,
/org.eclipse.ui.workbench/Eclipse UI/org/eclipse/ui/internal/LayoutPart.java,1.38,53320,Bug,?,?,?,Unclear,?,?,multiple-bugs
/org.eclipse.ant.ui/Ant Editor/org/eclipse/ant/internal/ui/editor/outline/AntModel.java,1.39,52040,Bug,?,1.32,1.32,Unrelated,?,?,
/org.eclipse.swt/Eclipse SWT Browser/win32/org/eclipse/swt/browser/Browser.java,1.39,57225,Bug,1.1,?,1.12,Single,?,?,
/org.eclipse.ui.workbench/Eclipse UI/org/eclipse/ui/internal/progress/NewProgressViewer.java,1.39,63216,Bug,1.8,1.8,?,Single,?,?,
/org.eclipse.ant.ui/Ant Editor/org/eclipse/ant/internal/ui/editor/AbstractAntSourceViewerConfiguration.java,1.3,62237,Bug,1.1,1.1|1.2,1.2,Single,1.1,1.2,only-da|feature
/org.eclipse.jdt.ui/ui/org/eclipse/jdt/internal/ui/search/LevelTreeContentProvider.java,1.3,51670,Bug,1.1,1.1,1.1,Single,?,?,multiple-bugs
/org.eclipse.osgi/defaultAdaptor/src/org/eclipse/osgi/framework/internal/protocol/bundleresource/Handler.java,1.3,56279,Bug,?,?,1.1,Unrelated,?,?,
/org.eclipse.search/search/org/eclipse/search/internal/ui/text/FileTreeContentProvider.java,1.3,51670,Bug,1.1,1.1,1.1,Single,?,?,multiple-bugs
/org.eclipse.team.ui/src/org/eclipse/team/ui/synchronize/SyncInfoCompareInput.java,1.3,55539,Bug,1.2,1.2,1.2,Single,?,?,
/org.eclipse.core.runtime/src/org/eclipse/core/internal/content/ContentTypeManager.java,1.40,72796,Bug,?,?,?,Unclear,?,?,
/org.eclipse.jdt.core/model/org/eclipse/jdt/internal/core/util/PublicScanner.java,1.40,51363,Bug,1.39,1.39,1.39,Single,?,?,
/org.eclipse.ui.workbench.texteditor/src/org/eclipse/ui/texteditor/FindReplaceDialog.java,1.40,64531,Bug,1.38,1.38,?,Single,?,?,
/org.eclipse.ui.workbench/Eclipse UI/org/eclipse/ui/internal/progress/NewProgressViewer.java,1.40,63005,Bug,1.34,?,1.34,Single,?,?,only-da|only-added|guard-clause
/org.eclipse.jdt.core/compiler/org/eclipse/jdt/internal/compiler/lookup/ClassScope.java,1.41,54763,Bug,?,?,?,Unrelated,?,?,
/org.eclipse.jdt.core/model/org/eclipse/jdt/internal/core/CommitWorkingCopyOperation.java,1.41,49561,Bug,1.1,?,?,Single,?,?,feature
/org.eclipse.jdt.ui/core refactoring/org/eclipse/jdt/internal/corext/refactoring/reorg/ReorgPolicyFactory.java,1.41,63908,Bug,?,1.29|1.1|1.32,1.32,Related,?,?,
/org.eclipse.ui.workbench/Eclipse UI/org/eclipse/ui/internal/PartStack.java,1.41,53320,Bug,?,?,?,Unclear,?,?,multiple-bugs
/org.eclipse.ui.workbench/Eclipse UI/org/eclipse/ui/internal/progress/ProgressManager.java,1.41,54086,Bug,?,?,?,Unclear,?,?,feature
/org.eclipse.core.resources/src/org/eclipse/core/internal/resources/Folder.java,1.42,50965,Bug,1.1,1.1|1.3,1.2,Single,1.1,1.3,unrelated-changes|feature
/org.eclipse.jdt.core/compiler/org/eclipse/jdt/internal/compiler/lookup/BinaryTypeBinding.java,1.42,70656,Bug,1.40,1.40,1.40,Single,?,?,
/org.eclipse.jdt.debug.ui/ui/org/eclipse/jdt/internal/debug/ui/display/DisplayView.java,1.42,57853,Bug,1.1,1.14|1.37,1.14,Single,?,?,guard-clause|feature
/org.eclipse.jdt.debug.ui/ui/org/eclipse/jdt/internal/debug/ui/display/DisplayView.java,1.43,57853,Bug,?,1.42,1.42,Unrelated,?,?,
/org.eclipse.core.runtime/src/org/eclipse/core/internal/content/ContentType.java,1.44,72796,Bug,?,?,?,Unclear,?,?,
/org.eclipse.jdt.core/compiler/org/eclipse/jdt/internal/compiler/lookup/ClassScope.java,1.45,61706,Bug,1.1,?,1.1,Single,?,?,only-da|only-added|guard-clause
/org.eclipse.jdt.core/model/org/eclipse/jdt/core/Signature.java,1.45,62769,Bug,1.40,?,?,Single,?,?,
/org.eclipse.swt/Eclipse SWT/motif/org/eclipse/swt/widgets/Label.java,1.45,68070,Bug,1.1,1.1,1.1,Single,?,?,
/org.eclipse.ui.ide/src/org/eclipse/ui/internal/ide/IDEWorkbenchAdvisor.java,1.46,76671,Bug,1.45,1.45,1.45,Single,?,?,
/org.eclipse.ant.ui/Ant Editor/org/eclipse/ant/internal/ui/editor/AntEditor.java,1.47,62237,Bug,1.1,1.29|1.1,1.29,Single,1.29,1.29,
/org.eclipse.team.cvs.ui/src/org/eclipse/team/internal/ccvs/ui/actions/TagAction.java,1.47,63753,Bug,1.40,1.40,?,Single,?,?,
/org.eclipse.jdt.core/model/org/eclipse/jdt/core/ICompilationUnit.java,1.48,62769,Bug,1.43,?,?,Single,?,?,
/org.eclipse.swt/Eclipse SWT/motif/org/eclipse/swt/widgets/Label.java,1.48,74666,Bug,1.2,1.47|1.1|1.2|1.42,1.1,Single,1.2,1.47,unrelated-changes
/org.eclipse.jdt.core/model/org/eclipse/jdt/internal/core/hierarchy/HierarchyBuilder.java,1.49,67981,Bug,1.1,?,1.45,Single,?,?,
/org.eclipse.ui.workbench/Eclipse UI/org/eclipse/ui/internal/EditorManager.java,1.49,70362,Bug,1.44|1.43,1.44|1.43,1.44,Multiple,?,?,
/org.eclipse.core.runtime/src/org/eclipse/core/internal/content/DefaultDescription.java,1.4,72796,Bug,?,?,?,Unrelated,?,?,
/org.eclipse.jdt.debug.ui/ui/org/eclipse/jdt/internal/debug/core/refactoring/JavaBreakpointTypeChange.java,1.4,62932,Bug,1.1|1.2,1.1|1.2,1.2,Multiple,?,?,
/org.eclipse.jdt.ui/ui/org/eclipse/jdt/internal/ui/javaeditor/selectionactions/StructureSelectPreviousAction.java,1.4,65063,Bug,1.1,1.1,1.1,Single,?,?,
/org.eclipse.osgi/defaultAdaptor/src/org/eclipse/osgi/framework/adaptor/core/BundleFile.java,1.4,56279,Bug,1.1,1.1,1.1,Single,?,?,
/org.eclipse.swt/Eclipse SWT Browser/win32/org/eclipse/swt/browser/WebSite.java,1.4,57225,Bug,1.1,?,?,Single,?,?,
/org.eclipse.team.ui/src/org/eclipse/team/internal/ui/synchronize/RefreshUserNotificationPolicyInModalDialog.java,1.4,55539,Bug,1.2,1.2,1.2,Single,?,?,
/org.eclipse.ui.ide/extensions/org/eclipse/ui/actions/WorkspaceAction.java,1.4,53582,Bug,?,?,?,Related,?,?,
/org.eclipse.ui.workbench/Eclipse UI/org/eclipse/ui/dialogs/PropertyPage.java,1.4,60789,Bug,1.1,?,?,Single,?,?,
/org.eclipse.ui.workbench/Eclipse UI/org/eclipse/ui/part/Page.java,1.4,55816,Bug,?,?,?,Unrelated,?,?,
/org.eclipse.jdt.core/model/org/eclipse/jdt/internal/core/JavaModelOperation.java,1.50,49561,Bug,?,1.21|1.49|1.32,1.21,Related,?,?,unrelated-changes
/org.eclipse.core.resources/src/org/eclipse/core/resources/IFile.java,1.52,50965,Bug,?,?,?,Related,?,?,
/org.eclipse.jdt.ui/core refactoring/org/eclipse/jdt/internal/corext/refactoring/reorg/MoveCuUpdateCreator.java,1.52,63908,Bug,?,1.13|1.50|1.49|1.9|1.3,1.50,Related,?,?,
/org.eclipse.jdt.ui/ui/org/eclipse/jdt/ui/actions/RefactorActionGroup.java,1.52,55845,Bug,1.46,1.51,1.51,Single,?,?,
/org.eclipse.swt/Eclipse SWT Custom Widgets/common/org/eclipse/swt/custom/CBanner.java,1.52,60768,Bug,1.1,1.16|1.47|1.49|1.35,1.49,Single,?,?,
/org.eclipse.jdt.core/model/org/eclipse/jdt/internal/core/PackageFragment.java,1.53,49561,Bug,1.1,1.2,1.1,Single,?,?,only-da
/org.eclipse.jdt.core/compiler/org/eclipse/jdt/internal/compiler/ast/CastExpression.java,1.54,54763,Bug,1.1,1.23|1.30|1.26,1.30,Multiple,?,?,unrelated-changes
/org.eclipse.swt/Eclipse SWT/photon/org/eclipse/swt/widgets/Text.java,1.54,81695,Bug,1.1,?,1.1,Single,?,?,only-da|only-added
/org.eclipse.jdt.core/codeassist/org/eclipse/jdt/internal/codeassist/impl/AssistParser.java,1.55,69598,Bug,1.1,?,1.1,Single,?,?,only-da|only-added
/org.eclipse.jdt.core/compiler/org/eclipse/jdt/internal/compiler/ast/CastExpression.java,1.55,61706,Bug,?,?,?,Related,?,?,
/org.eclipse.ui.workbench/Eclipse UI/org/eclipse/ui/internal/commands/Command.java,1.55,65716,Bug,1.37,1.37,1.37,Single,?,?,
/org.eclipse.jdt.core/dom/org/eclipse/jdt/core/dom/CompilationUnit.java,1.56,62769,Bug,1.38|1.49,?,?,Multiple,?,?,
/org.eclipse.jdt.ui/core refactoring/org/eclipse/jdt/internal/corext/refactoring/structure/PushDownRefactoring.java,1.56,63908,Bug,?,1.4|1.22|1.53,1.22,Related,?,?,
/org.eclipse.ui.workbench/Eclipse UI/org/eclipse/ui/internal/PartPane.java,1.56,70362,Bug,1.1,1.1,1.1,Single,?,?,
/org.eclipse.ui.workbench/Eclipse UI/org/eclipse/ui/internal/ViewPane.java,1.56,55640,Bug,1.33,1.1|1.38|1.53|1.48|1.33|1.34,1.53,Single,1.33,1.53,
/org.eclipse.jdt.core/model/org/eclipse/jdt/internal/core/ClasspathEntry.java,1.57,62713,Bug,1.44,1.44,1.44,Single,?,?,
/org.eclipse.ui.workbench/Eclipse UI/org/eclipse/ui/internal/ViewPane.java,1.57,55816,Bug,1.53,1.30|1.22|1.43|1.53,1.43,Single,1.30,1.53,
/org.eclipse.jdt.core/compiler/org/eclipse/jdt/internal/compiler/Compiler.java,1.58,61706,Bug,1.1,1.31|1.1|1.36,1.36,Single,1.1,1.36,
/org.eclipse.jdt.junit/src/org/eclipse/jdt/internal/junit/ui/TestRunnerViewPart.java,1.58,49708,Bug,1.47,1.47|1.11,1.47,Single,1.11,1.47,only-da
/org.eclipse.swt/Eclipse SWT/carbon/org/eclipse/swt/widgets/Combo.java,1.58,66653,Bug,1.57,?,1.57,Single,?,?,only-da|only-added
/org.eclipse.swt/Eclipse SWT Browser/motif/org/eclipse/swt/browser/Browser.java,1.59,79881,Bug,1.6,1.6,?,Single,?,?,
/org.eclipse.swt/Eclipse SWT/win32/org/eclipse/swt/widgets/TableItem.java,1.59,65759,Bug,1.54,1.54,1.54,Single,?,?,
/org.eclipse.team.cvs.core/src/org/eclipse/team/internal/ccvs/core/util/SyncFileWriter.java,1.59,50965,Bug,?,1.12|1.48,1.48,Unrelated,?,?,
/org.eclipse.ant.ui/Ant Editor/org/eclipse/ant/internal/ui/editor/model/AntTaskNode.java,1.5,52040,Bug,1.4,1.4,1.4,Single,?,?,
/org.eclipse.jdt.ui/core extension/org/eclipse/jdt/internal/corext/callhierarchy/CallHierarchy.java,1.5,53873,Bug,1.1,1.1,1.1,Single,?,?,
/org.eclipse.ui.workbench/Eclipse UI/org/eclipse/ui/dialogs/ListDialog.java,1.5,60789,Bug,1.1,?,?,Single,?,?,
/org.eclipse.ui.workbench/Eclipse UI/org/eclipse/ui/internal/ViewSashContainer.java,1.5,53320,Bug,?,?,?,Unclear,?,?,multiple-bugs
/org.eclipse.ui.workbench/Eclipse UI/org/eclipse/ui/internal/themes/ColorDefinition.java,1.5,55243,Bug,1.4,1.4,1.4,Single,?,?,
/org.eclipse.ui.workbench/Eclipse UI/org/eclipse/ui/part/MessagePage.java,1.5,55816,Bug,1.1,1.1,1.1,Single,?,?,
/org.eclipse.update.core/src/org/eclipse/update/internal/model/BundleManifest.java,1.5,54538,Bug,?,1.1|1.3,1.1,Elsewhere,?,?,
/org.eclipse.jdt.core/dom/org/eclipse/jdt/core/dom/ASTNode.java,1.60,62769,Bug,1.39|1.40,?,?,Multiple,?,?,
/org.eclipse.ui.workbench/Eclipse UI/org/eclipse/ui/internal/PartPane.java,1.60,53320,Bug,?,?,?,Unclear,?,?,multiple-bugs
/org.eclipse.jdt.core/compiler/org/eclipse/jdt/internal/compiler/ast/ConstructorDeclaration.java,1.61,61706,Bug,?,1.1,?,Unrelated,?,?,
/org.eclipse.ui.workbench/Eclipse UI/org/eclipse/ui/internal/progress/ProgressManager.java,1.61,59782,Bug,?,1.48|1.60,1.60,Related,?,?,review
/org.eclipse.debug.ui/ui/org/eclipse/debug/internal/ui/launchConfigurations/LaunchConfigurationsDialog.java,1.62,56070,Bug,1.1,1.1|1.25,1.25,Single,1.25,1.25,
/org.eclipse.jdt.ui/core refactoring/org/eclipse/jdt/internal/corext/refactoring/sef/SelfEncapsulateFieldRefactoring.java,1.63,63908,Bug,?,1.21|1.34|1.61|1.37,1.61,Related,?,?,unrelated-changes
/org.eclipse.jdt.core/compiler/org/eclipse/jdt/internal/compiler/ast/AbstractMethodDeclaration.java,1.67,61706,Bug,?,1.50|1.64|1.1,1.1,Related,?,?,
/org.eclipse.jdt.core/compiler/org/eclipse/jdt/internal/compiler/ClassFile.java,1.68,61706,Bug,?,1.54,?,Unrelated,?,?,
/org.eclipse.swt/Eclipse SWT Browser/carbon/org/eclipse/swt/browser/Browser.java,1.69,75390,Bug,1.33,?,1.33,Single,?,?,only-da|only-added|guard-clause
/org.eclipse.ant.ui/Ant Editor/org/eclipse/ant/internal/ui/editor/text/AntEditorProcInstrScanner.java,1.6,62237,Bug,1.1,1.5|1.1|1.2,1.5,Single,1.5,1.5,feature
/org.eclipse.ant.ui/Ant Editor/org/eclipse/ant/internal/ui/editor/text/AntEditorTagScanner.java,1.6,62237,Bug,1.1,1.5|1.1|1.2,1.5,Single,1.5,1.5,feature
/org.eclipse.core.runtime/src/org/eclipse/core/internal/content/FileSpec.java,1.6,72796,Bug,?,?,?,Unrelated,?,?,
/org.eclipse.jdt.ui/ui/org/eclipse/jdt/internal/ui/javaeditor/JavaTextSelection.java,1.6,72912,Bug,?,1.5|1.1,?,Related,?,?,
/org.eclipse.swt/Eclipse SWT Browser/win32/org/eclipse/swt/browser/WebSite.java,1.6,57225,Bug,1.1,1.5,?,Single,?,?,
/org.eclipse.ui.workbench/Eclipse UI/org/eclipse/ui/dialogs/ListSelectionDialog.java,1.6,60789,Bug,1.1,?,?,Single,?,?,
/org.eclipse.ui.workbench/Eclipse UI/org/eclipse/ui/internal/progress/ProgressRegion.java,1.6,54086,Bug,?,?,?,Unclear,?,?,feature
/org.eclipse.update.configurator/src/org/eclipse/update/internal/configurator/BundleManifest.java,1.6,54538,Bug,?,1.4|1.1,1.1,Elsewhere,?,?,
/org.eclipse.swt/Eclipse SWT Browser/carbon/org/eclipse/swt/browser/Browser.java,1.70,75390,Bug,1.33,1.69,1.69,Single,?,?,only-da
/org.eclipse.swt/Eclipse SWT/motif/org/eclipse/swt/widgets/Text.java,1.70,81695,Bug,1.1,?,1.1,Single,?,?,only-da|only-added
/org.eclipse.jdt.core/formatter/org/eclipse/jdt/internal/formatter/Scribe.java,1.71,62737,Bug,1.1,1.15|1.26,1.26,Single,?,?,
/org.eclipse.jdt.core/compiler/org/eclipse/jdt/internal/compiler/ast/TypeDeclaration.java,1.73,61706,Bug,?,1.53|1.1,1.1,Related,?,?,
/org.eclipse.jdt.core/codeassist/org/eclipse/jdt/internal/codeassist/SelectionEngine.java,1.74,61706,Bug,?,1.57|1.54,1.57,Unrelated,?,?,
/org.eclipse.jdt.core/model/org/eclipse/jdt/internal/core/BinaryType.java,1.74,49561,Bug,?,1.55|1.72|1.42,1.72,Unrelated,?,?,
/org.eclipse.swt/Eclipse SWT/win32/org/eclipse/swt/widgets/Widget.java,1.74,60635,Bug,1.53,1.53,1.53,Single,?,?,
/org.eclipse.core.resources/src/org/eclipse/core/resources/IResource.java,1.76,50965,Bug,?,?,?,Related,?,?,
/org.eclipse.jdt.core/model/org/eclipse/jdt/internal/core/JavaModel.java,1.76,49561,Bug,?,1.1,1.1,Unrelated,?,?,
/org.eclipse.ui.workbench/Eclipse UI/org/eclipse/ui/internal/keys/WorkbenchKeyboard.java,1.76,66436,Bug,?,1.39,1.39,Unrelated,?,?,
/org.eclipse.jdt.core/model/org/eclipse/jdt/internal/core/SourceType.java,1.77,49561,Bug,?,1.74|1.1|1.54|1.48,1.74,Unrelated,?,?,
/org.eclipse.ui.workbench/Eclipse UI/org/eclipse/ui/internal/WorkbenchPlugin.java,1.77,56097,Bug,1.76,1.76,?,Single,?,?,
/org.eclipse.jdt.core/compiler/org/eclipse/jdt/internal/compiler/ast/ASTNode.java,1.7,61706,Bug,?,?,?,Related,?,?,
/org.eclipse.jdt.core/compiler/org/eclipse/jdt/internal/compiler/problem/AbortCompilationUnit.java,1.7,61706,Bug,?,1.1,1.1,Related,?,?,
/org.eclipse.jdt.core/compiler/org/eclipse/jdt/internal/compiler/problem/AbortMethod.java,1.7,61706,Bug,?,1.1,1.1,Related,?,?,
/org.eclipse.jdt.core/compiler/org/eclipse/jdt/internal/compiler/problem/AbortType.java,1.7,61706,Bug,?,1.1,1.1,Related,?,?,
/org.eclipse.team.ui/src/org/eclipse/team/internal/ui/synchronize/RefreshUserNotificationPolicy.java,1.7,55539,Bug,1.3,1.3,1.3,Single,?,?,
/org.eclipse.ui.workbench/Eclipse UI/org/eclipse/ui/internal/decorators/DecorationBuilder.java,1.7,66653,Bug,1.5,?,1.5,Single,?,?,only-da|only-added|guard-clause
/org.eclipse.ui.workbench/Eclipse UI/org/eclipse/ui/internal/decorators/DecorationResult.java,1.7,66318,Bug,1.3,?,1.3,Single,?,?,only-da|only-added|guard-clause
/org.eclipse.ui.workbench/Eclipse UI/org/eclipse/ui/internal/progress/ErrorNotificationDialog.java,1.7,59782,Bug,?,1.1,?,Unrelated,?,?,
/org.eclipse.ui.workbench/Eclipse UI/org/eclipse/ui/internal/progress/ProgressRegion.java,1.7,55816,Bug,1.1,1.3,?,Single,?,?,
/org.eclipse.ui.workbench/Eclipse UI/org/eclipse/ui/presentations/StackPresentation.java,1.7,55816,Bug,?,?,?,Related,?,?,
/org.eclipse.jdt.core/model/org/eclipse/jdt/internal/core/JavaElement.java,1.81,49561,Bug,?,1.52|1.46|1.79|1.54,?,Related,?,?,
/org.eclipse.ui.workbench/Eclipse UI/org/eclipse/ui/internal/commands/KeysPreferencePage.java,1.81,50549,Bug,1.60,1.64|1.63,1.63,Single,?,?,
/org.eclipse.swt/Eclipse SWT/motif/org/eclipse/swt/widgets/Shell.java,1.82,61337,Bug,1.79,1.79,1.79,Single,?,?,
/org.eclipse.ui.workbench/Eclipse UI/org/eclipse/ui/internal/ViewPane.java,1.82,70362,Bug,1.2,1.2,1.2,Single,?,?,
/org.eclipse.jdt.ui/core refactoring/org/eclipse/jdt/internal/corext/refactoring/structure/MoveInnerToTopRefactoring.java,1.83,63908,Bug,?,1.44|1.1|1.79,1.79,Related,?,?,
/org.eclipse.core.resources/src/org/eclipse/core/internal/resources/File.java,1.85,50965,Bug,1.1,1.1,1.1,Single,?,?,feature
/org.eclipse.debug.ui/ui/org/eclipse/debug/internal/ui/views/launch/LaunchView.java,1.89,61928,Bug,1.72,1.88|1.76|1.64|1.72,1.2,Single,1.88,1.88,unrelated-changes
/org.eclipse.jdt.core/compiler/org/eclipse/jdt/internal/compiler/lookup/Scope.java,1.89,54763,Bug,?,1.1,?,Related,?,?,
/org.eclipse.ant.ui/Ant Editor/org/eclipse/ant/internal/ui/editor/model/AntPropertyNode.java,1.8,52040,Bug,1.7,?,1.7,Single,?,?,only-da|only-added
/org.eclipse.core.runtime/src/org/eclipse/core/internal/content/XMLRootHandler.java,1.8,72796,Bug,?,?,?,Unrelated,?,?,
/org.eclipse.jdt.core/compiler/org/eclipse/jdt/internal/compiler/lookup/InvocationSite.java,1.8,61706,Bug,?,?,?,Related,?,?,
/org.eclipse.jdt.core/formatter/org/eclipse/jdt/internal/formatter/Location.java,1.8,62737,Bug,?,?,?,Related,?,?,
/org.eclipse.jdt.ui/core refactoring/org/eclipse/jdt/internal/corext/refactoring/structure/MoveStaticMembersProcessor.java,1.8,63908,Bug,?,1.1|1.3,1.3,Related,?,?,
/org.eclipse.ui.workbench/Eclipse UI/org/eclipse/ui/internal/ContainerPlaceholder.java,1.8,53320,Bug,?,?,?,Unclear,?,?,multiple-bugs
/org.eclipse.ui.workbench/Eclipse UI/org/eclipse/ui/internal/decorators/DecorationResult.java,1.8,66653,Bug,1.6,?,?,Single,?,?,
/org.eclipse.ui.workbench/Eclipse UI/org/eclipse/ui/internal/progress/ProgressViewer.java,1.8,55816,Bug,?,?,?,Elsewhere,?,?,
/org.eclipse.ui.workbench/Eclipse UI/org/eclipse/ui/presentations/IPresentablePart.java,1.8,55816,Bug,?,?,?,Related,?,?,
/org.eclipse.debug.ui/ui/org/eclipse/debug/internal/ui/views/launch/LaunchView.java,1.90,61928,Bug,?,?,?,Unrelated,?,?,
/org.eclipse.jdt.core/compiler/org/eclipse/jdt/internal/compiler/lookup/Scope.java,1.92,61706,Bug,1.67|1.80|1.77|1.81,?,1.81,Multiple,?,?,guard-clause
/org.eclipse.jdt.core/model/org/eclipse/jdt/internal/core/PackageFragmentRoot.java,1.92,49561,Bug,?,1.53|1.1,1.53,Unrelated,?,?,
/org.eclipse.swt/Eclipse SWT/carbon/org/eclipse/swt/widgets/Text.java,1.92,81695,Bug,1.1,?,1.1,Single,?,?,only-da|only-added
/org.eclipse.ui.workbench/Eclipse UI/org/eclipse/ui/internal/Perspective.java,1.92,53320,Bug,?,?,?,Unclear,?,?,multiple-bugs
/org.eclipse.core.resources/src/org/eclipse/core/internal/localstore/FileSystemResourceManager.java,1.95,50965,Bug,?,1.76,1.76,Unrelated,?,?,
/org.eclipse.jdt.ui/core refactoring/org/eclipse/jdt/internal/corext/refactoring/structure/ChangeSignatureRefactoring.java,1.98,63908,Bug,?,1.65|1.83|1.35,1.83,Related,?,?,
/org.eclipse.debug.ui/ui/org/eclipse/debug/internal/ui/views/breakpoints/BreakpointsViewContentProvider.java,1.9,58933,Bug,1.4,1.4|1.6|1.7|1.8,1.8,Single,1.4,1.8,
/org.eclipse.jdt.core/compiler/org/eclipse/jdt/internal/compiler/impl/ReferenceContext.java,1.9,61706,Bug,?,1.1,?,Related,?,?,
/org.eclipse.jdt.core/compiler/org/eclipse/jdt/internal/compiler/parser/AbstractCommentParser.java,1.9,51626,Bug,1.2,1.2,1.2,Single,?,?,only-da|multiple-bugs
/org.eclipse.jdt.core/compiler/org/eclipse/jdt/internal/compiler/problem/AbortCompilation.java,1.9,61706,Bug,1.1,1.5|1.7|1.1,1.7,Single,1.5,1.7,
/org.eclipse.jdt.core/search/org/eclipse/jdt/core/search/SearchDocument.java,1.9,62769,Bug,1.8,?,?,Multiple,?,?,
/org.eclipse.search/search/org/eclipse/search/internal/ui/text/ReplaceDialog2.java,1.9,64187,Bug,?,1.1,?,Elsewhere,?,?,multiple-bugs|feature
/org.eclipse.team.ui/src/org/eclipse/team/internal/ui/synchronize/actions/OpenInCompareAction.java,1.9,55539,Bug,1.4,1.4,1.4,Single,?,?,
/org.eclipse.ui.workbench/Eclipse UI/org/eclipse/ui/internal/EditorSashContainer.java,1.9,53320,Bug,?,?,?,Unclear,?,?,multiple-bugs
/org.eclipse.ui.workbench/Eclipse UI/org/eclipse/ui/internal/presentations/NativeStackPresentation.java,1.9,55816,Bug,?,?,?,Related,?,?,
